z123x21c312vvaa


full name : sdfsdfsdf

2011-10-05T14:48:00.000Z


created at ¹Þ¾Æ¼­ substringÇØ¼­ commitÇÑ¸¸Å­ ±×·¡ÇÁ¿¡¼­ Ãß°¡ccc
1,2,3,4,5,6,7,8,9,10,11,12ÁÖ°í

0,0,0,0,0,0,,0,0,0,0, valueÁà¼­ ÇÏ³ª¾¿ Ãß°¡ÇØÁÖ±â

¿¡ÇÈ : ¿ä±¸»çÇ× subtask : ¼­ºê ¿ä±¸   ¿¡ÇÈ ½ºÅä¸® ¹Ù²Ù±â